{
  "project_info": {
    "project_number": "791144738416",
    "firebase_url": "https://blissful-land-201717.firebaseio.com",
    "project_id": "blissful-land-201717",
    "storage_bucket": "blissful-land-201717.appspot.com"
  },
  "client": [
    {
      "client_info": {
        "mobilesdk_app_id": "1:791144738416:android:833647e9c03367ed82ceb5",
        "android_client_info": {
          "package_name": "kz.kazpoisk.kz"
        }
      },
      "oauth_client": [
        {
          "client_id": "791144738416-28oil3plehf6g4ke8afkij50kolmto10.apps.googleusercontent.com",
          "client_type": 3
        }
      ],
      "api_key": [
        {
          "current_key": "AIzaSyCPYFoq43btNwAvi76ydmU0lTmCkFOuB0g"
        }
      ],
      "services": {
        "appinvite_service": {
          "other_platform_oauth_client": [
            {
              "client_id": "791144738416-28oil3plehf6g4ke8afkij50kolmto10.apps.googleusercontent.com",
              "client_type": 3
            }
          ]
        }
      }
    }
  ],
  "configuration_version": "1"
}
