{
    "ImageIO.framework": 1,
    "CoreLocation.framework": 2,
    "AVFoundation.framework": 1,
    "AddressBook.framework": 2,
    "AddressBookUI.framework": 1,
    "libz.tbd": 1,
    "Security.framework": 1,
    "CoreText.framework": 1,
    "SafariServices.framework": 1,
    "SystemConfiguration.framework": 1,
    "libz.dylib": 1
}