{
  "prepare_queue": {
    "installed": [],
    "uninstalled": []
  },
  "config_munge": {
    "files": {}
  },
  "installed_plugins": {
    "cordova-plugin-camera": {
      "PACKAGE_NAME": "kz.kazpoisk.kz"
    },
    "cordova-plugin-contacts": {
      "PACKAGE_NAME": "kz.kazpoisk.kz"
    },
    "cordova-plugin-device": {
      "PACKAGE_NAME": "kz.kazpoisk.kz"
    },
    "cordova-plugin-file": {
      "PACKAGE_NAME": "kz.kazpoisk.kz"
    },
    "cordova-plugin-firebase": {
      "PACKAGE_NAME": "kz.kazpoisk.kz"
    },
    "cordova-plugin-geolocation": {
      "PACKAGE_NAME": "kz.kazpoisk.kz"
    },
    "cordova-plugin-googleplus": {
      "PLAY_SERVICES_VERSION": "15.0.1",
      "PACKAGE_NAME": "kz.kazpoisk.kz"
    },
    "cordova-plugin-ionic-webview": {
      "ANDROID_SUPPORT_ANNOTATIONS_VERSION": "27.+",
      "PACKAGE_NAME": "kz.kazpoisk.kz"
    },
    "cordova-plugin-keyboard": {
      "PACKAGE_NAME": "kz.kazpoisk.kz"
    },
    "cordova-plugin-network-information": {
      "PACKAGE_NAME": "kz.kazpoisk.kz"
    },
    "cordova-plugin-splashscreen": {
      "PACKAGE_NAME": "kz.kazpoisk.kz"
    },
    "cordova-plugin-statusbar": {
      "PACKAGE_NAME": "kz.kazpoisk.kz"
    },
    "cordova-plugin-telerik-imagepicker": {
      "PACKAGE_NAME": "kz.kazpoisk.kz"
    },
    "cordova-plugin-whitelist": {
      "PACKAGE_NAME": "kz.kazpoisk.kz"
    },
    "cordova-sms-plugin": {
      "PACKAGE_NAME": "kz.kazpoisk.kz"
    }
  },
  "dependent_plugins": {}
}
